{
    "debug": true,
    "server": {
      "address_compression": ":8000",
      "address_metadata": ":6000",
      "address_repository": ":5000"
    },
    "context":{
      "timeout":2
    },
    "repository": {
      "location": "userfile"
    },
    "database": {
        "sqlite3_loc": "gorm.db"
    }
}
  